…
## Borrar Datos Char

``` r
primer_tiempo2020 <- primer_tiempo2020[,!(colnames(primer_tiempo2020) %in% c("id_partido", "fasepartido", "local", "tiempo","formationUsed", "torneo"))]
```

## Analisis descriptivo

``` r
#Ordenamiento por cantidad de goles por partido de mayor a menor
fh2020 <- primer_tiempo2020[order(primer_tiempo2020$goals, decreasing = TRUE),]
fh2020
```

    ## # A tibble: 130 x 43
    ##    equipo partido accuratePass wonTackle lostCorners goalsConceded saves
    ##    <chr>  <chr>          <dbl>     <dbl>       <dbl>         <dbl> <dbl>
    ##  1 Uni<f~ Uni<f3~          202         2           0             2     0
    ##  2 Unive~ Univer~          168         8           1             1     2
    ##  3 Unive~ Univer~          269         2           3             0     2
    ##  4 Huach~ Uni<f3~           71         4           3             3     2
    ##  5 Audax~ Uni<f3~           94         7           2             1     1
    ##  6 Santi~ Santia~          127         5           0             1     0
    ##  7 Depor~ Palest~           89         3           5             0     2
    ##  8 O'Hig~ O'Higg~          114         9           2             1     1
    ##  9 Uni<f~ O'Higg~          160         0           0             1     1
    ## 10 La Se~ La Ser~          129         1           0             0     3
    ## # ... with 120 more rows, and 36 more variables: ontargetScoringAtt <dbl>,
    ## #   totalScoringAtt <dbl>, subsMade <dbl>, totalThrows <dbl>,
    ## #   totalYellowCard <dbl>, goalKicks <dbl>, totalPass <dbl>, fkFoulWon <dbl>,
    ## #   totalTackle <dbl>, fkFoulLost <dbl>, possessionPercentage <dbl>,
    ## #   totalClearance <dbl>, blockedScoringAtt <dbl>, goalAssist <dbl>,
    ## #   goals <dbl>, totalOffside <dbl>, shotOffTarget <dbl>, wonCorners <dbl>,
    ## #   cornerTaken <dbl>, penaltyConceded <dbl>, penaltyFaced <dbl>,
    ## #   penGoalsConceded <dbl>, penaltyWon <dbl>, ownGoals <dbl>,
    ## #   penaltySave <dbl>, secondYellow <dbl>, totalRedCard <dbl>,
…
    ## [1] 3

## Sub DataFrames

``` r
#Sub DF de goles
fh2020_goles = fh2020[,colnames(primer_tiempo2020) %in% c("equipo", "partido", "goals", "goalAssist")]
fh2020_goles = fh2020_goles[order(fh2020_goles$goals, decreasing = TRUE),]
fh2020_goles
```

    ## # A tibble: 130 x 4
    ##    equipo                partido                                goalAssist goals
    ##    <chr>                 <chr>                                       <dbl> <dbl>
    ##  1 Uni<f3>n Espa<f1>ola  Uni<f3>n Espa<f1>ola vs Huachipato              1     3
    ##  2 Universidad de Chile  Universidad de Chile vs Curic<f3> Uni~          2     2
    ##  3 Universidad Cat<f3>l~ Universidad Cat<f3>lica vs Deportes I~          1     2
    ##  4 Huachipato            Uni<f3>n Espa<f1>ola vs Huachipato              1     2
    ##  5 Audax Italiano        Uni<f3>n Espa<f1>ola vs Audax Italiano          2     2
    ##  6 Santiago Wanderers    Santiago Wanderers vs Audax Italiano            1     2
    ##  7 Deportivo Antofagasta Palestino vs Deportivo Antofagasta              1     2
    ##  8 O'Higgins             O'Higgins vs Universidad de Chile               2     2
    ##  9 Uni<f3>n Espa<f1>ola  O'Higgins vs Uni<f3>n Espa<f1>ola               1     2
    ## 10 La Serena             La Serena vs Santiago Wanderers                 2     2
    ## # ... with 120 more rows

``` r
#Sub DF de estadisticas generales
fh2020_estadis = fh2020[,colnames(primer_tiempo2020) %in% c("equipo", "partido", "possessionPercentage", "precision_pases", "precision_tiros")]
fh2020_estadis = fh2020_estadis[order(fh2020_estadis$precision_tiros, decreasing = TRUE),]
fh2020_estadis
```

    ## # A tibble: 130 x 5
    ##    equipo      partido          possessionPerce~ precision_pases precision_tiros
    ##    <chr>       <chr>                       <dbl>           <dbl>           <dbl>
    ##  1 Huachipato  Uni<f3>n Espa<f~             32.2            67.6           100  
    ##  2 Universida~ Uni<f3>n La Cal~             52.3            82.7           100  
    ##  3 Audax Ital~ Santiago Wander~             43.1            65             100  
    ##  4 O'Higgins   O'Higgins vs Sa~             44.1            66.2           100  
    ##  5 Deportes I~ Cobresal vs Dep~             46.5            85.4           100  
    ##  6 Uni<f3>n E~ Uni<f3>n Espa<f~             67.8            85.2            87.5
    ##  7 O'Higgins   O'Higgins vs Un~             48.2            69.5            85.7
    ##  8 Uni<f3>n E~ O'Higgins vs Un~             61.3            76.9            83.3
    ##  9 Universida~ Universidad Cat~             50.5            80              83.3
    ## 10 Universida~ Santiago Wander~             49.3            68.8            83.3
    ## # ... with 120 more rows
…
