…
## Outliers de AGE

``` r
out <- filter(titanic, titanic$AGE > 75)
out
```

    ## # A tibble: 214 x 15
    ##      AGE WORKCLASS FNLWGT EDUCATION EDUCATION.NUM MARITAL.STATUS OCCUPATION
    ##    <dbl> <chr>      <dbl> <chr>             <dbl> <chr>          <chr>     
    ##  1    90 Private    90523 HS-grad               9 Widowed        Transport~
    ##  2    90 ?         313986 HS-grad               9 Married-civ-s~ ?         
    ##  3    90 Private   171956 Some-col~            10 Separated      Adm-cleri~
    ##  4    78 Self-emp~ 316261 Bachelors            13 Never-married  Exec-mana~
    ##  5    82 Private   147729 5th-6th               3 Widowed        Other-ser~
    ##  6    80 Self-emp~  26865 7th-8th               4 Never-married  Farming-f~
    ##  7    78 Private   105586 5th-6th               3 Married-civ-s~ Transport~
    ##  8    84 Self-emp~ 172907 Some-col~            10 Married-civ-s~ Sales     
    ##  9    76 Private   199949 Bachelors            13 Married-civ-s~ Adm-cleri~
    ## 10    90 Private    87372 Prof-sch~            15 Married-civ-s~ Prof-spec~
    ## # ... with 204 more rows, and 8 more variables: RELATIONSHIP <chr>, RACE <chr>,
    ## #   SEX <chr>, CAPITAL.GAIN <dbl>, CAPITAL.LOSS <dbl>, HOURS.PER.WEEK <dbl>,
    ## #   NATIVE.COUNTRY <chr>, INCOME <chr>
…
## Outliers de NFLWGT

``` r
out1 <- filter(titanic, titanic$FNLWGT > max(titanic8$FNLWGT))
out1
```

    ## # A tibble: 1,297 x 15
    ##      AGE WORKCLASS FNLWGT EDUCATION EDUCATION.NUM MARITAL.STATUS OCCUPATION
    ##    <dbl> <chr>      <dbl> <chr>             <dbl> <chr>          <chr>     
    ##  1    54 Self-emp~ 392286 Assoc-ac~            12 Married-civ-s~ Sales     
    ##  2    45 Private   428350 HS-grad               9 Married-civ-s~ Machine-o~
    ##  3    30 Private   423770 Some-col~            10 Never-married  Prof-spec~
    ##  4    37 Self-emp~ 410919 HS-grad               9 Never-married  Craft-rep~
    ##  5    24 Private   448026 Bachelors            13 Never-married  Sales     
    ##  6    22 Private   396895 5th-6th               3 Married-civ-s~ Craft-rep~
    ##  7    59 Private   530099 Some-col~            10 Married-civ-s~ Craft-rep~
    ##  8    44 Private   456236 Masters              14 Married-civ-s~ Adm-cleri~
    ##  9    38 Private   607848 Bachelors            13 Married-civ-s~ Sales     
    ## 10    44 Private   408531 HS-grad               9 Divorced       Adm-cleri~
    ## # ... with 1,287 more rows, and 8 more variables: RELATIONSHIP <chr>,
    ## #   RACE <chr>, SEX <chr>, CAPITAL.GAIN <dbl>, CAPITAL.LOSS <dbl>,
    ## #   HOURS.PER.WEEK <dbl>, NATIVE.COUNTRY <chr>, INCOME <chr>
